Introduce Yourself
…
Let’s check out the data.

steve

# A tibble: 414 × 5
    year sex   name        n     prop
   <dbl> <chr> <chr>   <int>    <dbl>
 1  1880 M     Stephen   176 0.00149 
 2  1880 M     Steve      52 0.000439
 3  1880 M     Steven     17 0.000144
 4  1881 M     Stephen   147 0.00136 
 5  1881 M     Steve      44 0.000406
 6  1881 M     Steven     15 0.000139
 7  1882 M     Stephen   201 0.00165 
 8  1882 M     Steve      63 0.000516
 9  1882 M     Steven     22 0.000180
10  1883 M     Stephen   140 0.00124 
# … with 404 more rows
…
