Lab 05: Data Wrangling for Tables
…
2.4
dplyr::distinct

# unique origin-dest combinations
flights %>% 
  select(origin, dest) %>% 
  distinct %>% head(n=50)

## # A tibble: 50 × 2
##    origin dest 
##    <chr>  <chr>
##  1 PDX    ANC  
##  2 SEA    CLT  
##  3 PDX    IAH  
##  4 PDX    CLT  
##  5 SEA    ANC  
##  6 SEA    DTW  
##  7 SEA    ORD  
##  8 SEA    DEN  
##  9 SEA    EWR  
## 10 PDX    DEN  
## # … with 40 more rows
…
