Lab 10: High-Dimensional Data & Networks
…
What if we try filtering our graph, to only include edges
representing at least four shared authors?

journal_graph <- journal_graph %>% filter(weight > 4)
edges <- journal_graph %>% left_join(nodes, by=c("source"="label")) %>% rename(from=id)
edges <- edges %>% left_join(nodes, by=c("dest" = "label")) %>% rename(to=id)
edges <- edges %>% select(from, to, weight)
edges

## # A tibble: 6,364 × 3
##     from    to weight
##    <int> <int>  <int>
##  1     3   234     11
##  2     6   387     17
##  3     7    99      8
##  4     7   148     26
##  5     7   155     50
##  6     7   360     11
##  7     7   399      6
##  8     7   423      5
##  9     7   443      8
## 10     7   674      8
## # … with 6,354 more rows
…
