Lab 04: BMI 5/625
…
# Finally tidy cakes

```r
cakes_tidy <- cakes_untidy %>% 
  pivot_longer(cake:pie_tart, 
               names_to="bake_type", 
               values_to="num_bakes") %>% 
  arrange(series)
cakes_tidy
```

```
# A tibble: 32 × 4
   series challenge   bake_type num_bakes
   <fct>  <chr>       <chr>         <dbl>
 1 1      showstopper cake              5
 2 1      showstopper pie_tart          5
 3 1      signature   cake             12
 4 1      signature   pie_tart          4
 5 2      showstopper cake              8
 6 2      showstopper pie_tart         17
 7 2      signature   cake             21
 8 2      signature   pie_tart          7
 9 3      showstopper cake             12
10 3      showstopper pie_tart         17
# … with 22 more rows
```
…
# What about changing types?

```r
cakes_tidy <- cakes_untidy %>% 
  pivot_longer(cake:pie_tart, 
               names_to="bake_type", 
               names_transform = list(bake_type=as.factor),
               values_to="num_bakes") %>% 
  arrange(series)
cakes_tidy
```

```
# A tibble: 32 × 4
   series challenge   bake_type num_bakes
   <fct>  <chr>       <fct>         <dbl>
 1 1      showstopper cake              5
 2 1      showstopper pie_tart          5
 3 1      signature   cake             12
 4 1      signature   pie_tart          4
 5 2      showstopper cake              8
 6 2      showstopper pie_tart         17
 7 2      signature   cake             21
 8 2      signature   pie_tart          7
 9 3      showstopper cake             12
10 3      showstopper pie_tart         17
# … with 22 more rows
```
…
What if we only want _some_ of the columns?

---

# `dplyr::select()` to the rescue

```r
cakes_raw %>% select(cake)
```

```
# A tibble: 1,772 × 1
   cake 
   <chr>
 1 cake 
 2 cake 
 3 cake 
 4 cake 
 5 cake 
 6 cake 
 7 cake 
 8 cake 
 9 cake 
10 <NA> 
# … with 1,762 more rows
```
…
---

# Columns that _start_ with a string?

```r
cakes_raw %>% select(starts_with("c"))
```

```
# A tibble: 1,772 × 2
   challenge cake 
   <chr>     <chr>
 1 signature cake 
 2 signature cake 
 3 signature cake 
 4 signature cake 
 5 signature cake 
 6 signature cake 
 7 signature cake 
 8 signature cake 
 9 signature cake 
10 signature <NA> 
# … with 1,762 more rows
```
…
